{
    "archivos": [
        "D:/ITM/2024_1/marzo_16_a_31/material_formacion/2024_04/src/etl/data/transformacion/data_population_world.csv",
        "D:/ITM/2024_1/marzo_16_a_31/material_formacion/2024_04/src/etl/data/transformacion/metadata_countries.csv",
        "D:/ITM/2024_1/marzo_16_a_31/material_formacion/2024_04/src/etl/data/transformacion/country_list.csv"
    ],
    "tabla": "data_population_world",
    "operaciones": [
        {
            "tipo": "imprimir_info"
        }
    ]
}