{
    "archivos": [
        "D:/ITM/2024_1/marzo_16_a_31/material_formacion/2024_04/src/etl/data/transformacion/countries_gdp_hist.csv",
        "D:/ITM/2024_1/marzo_16_a_31/material_formacion/2024_04/src/etl/data/transformacion/country_list.csv",
        "D:/ITM/2024_1/marzo_16_a_31/material_formacion/2024_04/src/etl/data/transformacion/data_population_world.csv",
        "D:/ITM/2024_1/marzo_16_a_31/material_formacion/2024_04/src/etl/data/transformacion/mean-years-of-schooling-long-run.csv",
        "D:/ITM/2024_1/marzo_16_a_31/material_formacion/2024_04/src/etl/data/transformacion/metadata_countries.csv",
        "D:/ITM/2024_1/marzo_16_a_31/material_formacion/2024_04/src/etl/data/transformacion/organizations_gdp_hist.csv"
    ],
    "tabla": "popilation_world",
    "operaciones": [
        {
            "tipo": "imprimir_info"
        },
        {
            "tipo": "estandarizar_columnas"
        },
        {
            "tipo": "reemplazar_nans",
            "valor": "N/A"
        },
        {
            "tipo": "filtrar_df",
            "filtro": {"columna1": "valor1", "columna2": "valor2"}
        }
    ]
}